…
```r
library(grid)
library(shiny)
```

After downloading the data and placing it in your current working directory, you can load it like so:

```r
ff_data <- read_csv('forestfires.csv', show_col_types = F)
ff_data # Let's take a look at what we've loaded.
```

```
## # A tibble: 517 x 13
##        X     Y month day    FFMC   DMC    DC   ISI  temp    RH  wind  rain  area
##    <dbl> <dbl> <chr> <chr> <dbl> <dbl> <dbl> <dbl> <dbl> <dbl> <dbl> <dbl> <dbl>
##  1     7     5 mar   fri    86.2  26.2  94.3   5.1   8.2    51   6.7   0       0
##  2     7     4 oct   tue    90.6  35.4 669.    6.7  18      33   0.9   0       0
##  3     7     4 oct   sat    90.6  43.7 687.    6.7  14.6    33   1.3   0       0
##  4     8     6 mar   fri    91.7  33.3  77.5   9     8.3    97   4     0.2     0
##  5     8     6 mar   sun    89.3  51.3 102.    9.6  11.4    99   1.8   0       0
##  6     8     6 aug   sun    92.3  85.3 488    14.7  22.2    29   5.4   0       0
##  7     8     6 aug   mon    92.3  88.9 496.    8.5  24.1    27   3.1   0       0
##  8     8     6 aug   mon    91.5 145.  608.   10.7   8      86   2.2   0       0
##  9     8     6 sep   tue    91   130.  693.    7    13.1    63   5.4   0       0
## 10     7     5 sep   sat    92.5  88   699.    7.1  22.8    40   4     0       0
## # ... with 507 more rows
```
…
